###############################################################################
#
# IAR ANSI C/C++ Compiler V7.70.1.11437/W32 for ARM       27/Mar/2018  06:08:32
# Copyright 1999-2016 IAR Systems AB.
#
#    Cpu mode     =  thumb
#    Endian       =  little
#    Source file  =  
#        C:\proj\Esel\KL16_SMAC_MQXLite_BME680\MQXLITE\psp\cortex_m\int_vtab.c
#    Command line =  
#        C:\proj\Esel\KL16_SMAC_MQXLite_BME680\MQXLITE\psp\cortex_m\int_vtab.c
#        --preprocess
#        "C:\proj\Esel\KL16_SMAC_MQXLite_BME680\app\kl16z128_eslora
#        MQXLite\List" -lcN
#        "C:\proj\Esel\KL16_SMAC_MQXLite_BME680\app\kl16z128_eslora
#        MQXLite\List" -o
#        "C:\proj\Esel\KL16_SMAC_MQXLite_BME680\app\kl16z128_eslora
#        MQXLite\Obj" --no_cse --no_unroll --no_inline --no_code_motion
#        --no_tbaa --no_clustering --no_scheduling --debug --endian=little
#        --cpu=Cortex-M0+ -e --fpu=None --dlib_config "C:\Program Files
#        (x86)\IAR Systems\Embedded Workbench
#        7.5\arm\INC\c\DLib_Config_Normal.h" -I
#        C:\proj\Esel\KL16_SMAC_MQXLite_BME680\app\Interface\ -I
#        C:\proj\Esel\KL16_SMAC_MQXLite_BME680\app\Sources\ -I
#        C:\proj\Esel\KL16_SMAC_MQXLite_BME680\app\..\MQXLITE\include\ -I
#        C:\proj\Esel\KL16_SMAC_MQXLite_BME680\app\..\MQXLITE\config\ -I
#        C:\proj\Esel\KL16_SMAC_MQXLite_BME680\app\..\MQXLITE\psp\cortex_m\ -I
#        C:\proj\Esel\KL16_SMAC_MQXLite_BME680\app\..\MQXLITE\psp\cortex_m\compiler\iar\
#        -I C:\proj\Esel\KL16_SMAC_MQXLite_BME680\app\..\drv\Generated_Code\ -I
#        C:\proj\Esel\KL16_SMAC_MQXLite_BME680\app\..\drv\PExSupport\Kinetis\
#        -I
#        C:\proj\Esel\KL16_SMAC_MQXLite_BME680\app\..\framework\OSAbstraction\MQXLite\Interface\
#        -I
#        C:\proj\Esel\KL16_SMAC_MQXLite_BME680\app\..\framework\RNG\Interface\
#        -I C:\proj\Esel\KL16_SMAC_MQXLite_BME680\app\..\framework\Common\ -I
#        C:\proj\Esel\KL16_SMAC_MQXLite_BME680\app\..\framework\Utils\Lists\ -I
#        C:\proj\Esel\KL16_SMAC_MQXLite_BME680\app\..\framework\Utils\FunctionLib\
#        -I
#        C:\proj\Esel\KL16_SMAC_MQXLite_BME680\app\..\framework\Utils\SecLib\
#        -I
#        C:\proj\Esel\KL16_SMAC_MQXLite_BME680\app\..\framework\FSCI\Interface\
#        -I C:\proj\Esel\KL16_SMAC_MQXLite_BME680\app\..\framework\FSCI\Source\
#        -I
#        C:\proj\Esel\KL16_SMAC_MQXLite_BME680\app\..\framework\Panic\Interface\
#        -I
#        C:\proj\Esel\KL16_SMAC_MQXLite_BME680\app\..\framework\SerialManager\Interface\
#        -I
#        C:\proj\Esel\KL16_SMAC_MQXLite_BME680\app\..\framework\MemManager\Interface\
#        -I
#        C:\proj\Esel\KL16_SMAC_MQXLite_BME680\app\..\framework\TimersManager\Interface\
#        -I
#        C:\proj\Esel\KL16_SMAC_MQXLite_BME680\app\..\framework\TimersManager\Source\
#        -I
#        C:\proj\Esel\KL16_SMAC_MQXLite_BME680\app\..\framework\Messaging\Interface\
#        -I
#        C:\proj\Esel\KL16_SMAC_MQXLite_BME680\app\..\framework\RNG\Interface\
#        -I C:\proj\Esel\KL16_SMAC_MQXLite_BME680\app\..\framework\RNG\Source\
#        -I
#        C:\proj\Esel\KL16_SMAC_MQXLite_BME680\app\..\ieee_802_15_4\Phy\Interface\
#        -I
#        C:\proj\Esel\KL16_SMAC_MQXLite_BME680\app\..\ieee_802_15_4\SMAC\Interface\
#        -I
#        C:\proj\Esel\KL16_SMAC_MQXLite_BME680\app\..\drv\Portable\ADC\Interface\
#        -I
#        C:\proj\Esel\KL16_SMAC_MQXLite_BME680\app\..\drv\Portable\BME\Interface\
#        -I
#        C:\proj\Esel\KL16_SMAC_MQXLite_BME680\app\..\drv\Portable\Flash\Interface\
#        -I
#        C:\proj\Esel\KL16_SMAC_MQXLite_BME680\app\..\drv\Portable\I2C\Interface\
#        -I
#        C:\proj\Esel\KL16_SMAC_MQXLite_BME680\app\..\drv\Portable\LED\Interface\
#        -I
#        C:\proj\Esel\KL16_SMAC_MQXLite_BME680\app\..\drv\Portable\LLWU\Interface\
#        -I
#        C:\proj\Esel\KL16_SMAC_MQXLite_BME680\app\..\drv\Portable\LPTMR\Interface\
#        -I
#        C:\proj\Esel\KL16_SMAC_MQXLite_BME680\app\..\drv\Portable\SMC\Interface\
#        -I
#        C:\proj\Esel\KL16_SMAC_MQXLite_BME680\app\..\drv\Portable\MCG\Interface\
#        -I C:\proj\Esel\KL16_SMAC_MQXLite_BME680\app\..\drv\Portable\Reset\
#        -On
#    Locale       =  Japanese_Japan.932
#    List file    =  
#        C:\proj\Esel\KL16_SMAC_MQXLite_BME680\app\kl16z128_eslora
#        MQXLite\List\int_vtab.lst
#    Object file  =  
#        C:\proj\Esel\KL16_SMAC_MQXLite_BME680\app\kl16z128_eslora
#        MQXLite\Obj\int_vtab.o
#
###############################################################################

C:\proj\Esel\KL16_SMAC_MQXLite_BME680\MQXLITE\psp\cortex_m\int_vtab.c
      1          /*HEADER*********************************************************************
      2          *
      3          * Copyright (c) 2010 Freescale Semiconductor;
      4          * All Rights Reserved
      5          *
      6          ***************************************************************************
      7          *
      8          * THIS SOFTWARE IS PROVIDED BY FREESCALE "AS IS" AND ANY EXPRESSED OR
      9          * IMPLIED WARRANTIES, INCLUDING, BUT NOT LIMITED TO, THE IMPLIED WARRANTIES
     10          * OF MERCHANTABILITY AND FITNESS FOR A PARTICULAR PURPOSE ARE DISCLAIMED.
     11          * IN NO EVENT SHALL FREESCALE OR ITS CONTRIBUTORS BE LIABLE FOR ANY DIRECT,
     12          * INDIRECT, INCIDENTAL, SPECIAL, EXEMPLARY, OR CONSEQUENTIAL DAMAGES
     13          * (INCLUDING, BUT NOT LIMITED TO, PROCUREMENT OF SUBSTITUTE GOODS OR
     14          * SERVICES; LOSS OF USE, DATA, OR PROFITS; OR BUSINESS INTERRUPTION)
     15          * HOWEVER CAUSED AND ON ANY THEORY OF LIABILITY, WHETHER IN CONTRACT,
     16          * STRICT LIABILITY, OR TORT (INCLUDING NEGLIGENCE OR OTHERWISE) ARISING
     17          * IN ANY WAY OUT OF THE USE OF THIS SOFTWARE, EVEN IF ADVISED OF
     18          * THE POSSIBILITY OF SUCH DAMAGE.
     19          *
     20          **************************************************************************
     21          *
     22          * $FileName: int_vtab.c$
     23          * $Version : 3.8.5.0$
     24          * $Date    : Aug-30-2011$
     25          *
     26          * Comments:
     27          *
     28          *   This file contains the functions used to access the vector
     29          *   table locations.
     30          *
     31          *END************************************************************************/
     32          
     33          #include "mqx_inc.h"
     34          
     35          #if MQX_USE_INTERRUPTS
     36          /*!
     37           * \brief Changes the location of the interrupt vector table.
     38           *
     39           * \param[in] addr Address of the new interrupt vector table.
     40           *
     41           * \return Address of the previous vector table.
     42           *
     43           * \warning Behavior depends on the BSP and the PSP.
     44           *
     45           * \see _int_get_vector_table
     46           * \see _int_get_previous_vector_table
     47           */
     48          _psp_code_addr _int_set_vector_table
     49          (
     50              _psp_code_addr addr
     51          )
     52          { /* Body */
     53             _psp_code_addr         old;
     54          #if MQX_EXIT_ENABLED
     55             KERNEL_DATA_STRUCT_PTR kernel_data;
     56          
     57             _GET_KERNEL_DATA(kernel_data);
     58             kernel_data->USERS_VBR = addr;
     59          #endif
     60          
     61             old = _PSP_GET_VTOR();
     62             _PSP_SET_VTOR(addr);
     63          
     64             return (old);
     65          
     66          } /* Endbody */
     67          
     68          /*!
     69           * \brief Gets the address of the current interrupt vector table. The function
     70           * depends on the PSP.
     71           *
     72           * \return Address of the current interrupt vector table.
     73           *
     74           * \see _int_set_vector_table
     75           * \see _int_get_previous_vector_table
     76           */
     77          _psp_code_addr _int_get_vector_table
     78          (
     79              void
     80          )
     81          {
     82              return _PSP_GET_VTOR();
     83          }
     84          
     85          #endif

   Maximum stack usage in bytes:

   .cstack Function
   ------- --------
       0   _int_get_vector_table
       0   _int_set_vector_table


   Section sizes:

   Bytes  Function/Label
   -----  --------------
       4  ??DataTable1
       4  ??DataTable1_1
       6  _int_get_vector_table
      26  _int_set_vector_table

 
 40 bytes in section .text
 
 40 bytes of CODE memory

Errors: none
Warnings: none
