






























 






 


































 







 

 
 

  #pragma system_include

 
 

 

  #pragma system_include






 















 
















 






 
 


  #pragma system_include

 
 

 

  #pragma system_include






 















 





                 



  

                 













 

   



                 



























 


  #pragma system_include

 
 
 


  #pragma system_include

 

   

 

   #pragma system_include






 




 

 


 


 

 

 

 

 

 

 

 

 

 














 












 




















 










 




















































































































 


 










 





















 















 













 








 












 











 










 









 











 









 









 









 









 














 














 
















 












 








 











 










 









 









 









 









 









 









 









 









 







 




 









 




 





 
















































 













 






 


   

  







 





 





 




 



 





 




 



 












 
   






 
  #pragma language = save 
  #pragma language = extended
  #pragma language = restore






 





 




 





 








                 




















 


                 

 

 
 

 

 

 

 



                 






 
 


  #pragma system_include

 
 

 

  #pragma system_include






 















 




 
 





 

                                 





                                 








                 

                 

                 

                 
                 



                 
                                 


  #pragma language=save
  #pragma language=extended
  typedef long long _Longlong;
  typedef unsigned long long _ULonglong;
  #pragma language=restore

  typedef unsigned short int _Wchart;
  typedef unsigned short int _Wintt;



                 

typedef signed int  _Ptrdifft;
typedef unsigned int     _Sizet;

 

                 



 
  typedef struct __va_list
  {
    char  *_Ap;
  } __va_list;

  typedef __va_list __Va_list;


__intrinsic __nounwind void __iar_Atexit(void (*)(void));


  typedef struct
  {        
    unsigned int _Wchar;
    unsigned int _State;
  } _Mbstatet;





typedef struct
{        
  _Longlong _Off;     
  _Mbstatet _Wstate;
} _Fpost;




                 














 


  #pragma system_include





 






















































































 

 


  
 

   


  





  #pragma language=save 
  #pragma language=extended
  __intrinsic __nounwind void __iar_dlib_perthread_initialize(void  *);
  __intrinsic __nounwind void  *__iar_dlib_perthread_allocate(void);
  __intrinsic __nounwind void __iar_dlib_perthread_destroy(void);
  __intrinsic __nounwind void __iar_dlib_perthread_deallocate(void  *);



  #pragma segment = "__DLIB_PERTHREAD" 
  #pragma segment = "__DLIB_PERTHREAD_init" 









   
  void  *__iar_dlib_perthread_access(void  *);
  #pragma language=restore








     
  



   

  


  
  typedef void *__iar_Rmtx;
  
  
  __intrinsic __nounwind void __iar_system_Mtxinit(__iar_Rmtx *m);
  __intrinsic __nounwind void __iar_system_Mtxdst(__iar_Rmtx *m);
  __intrinsic __nounwind void __iar_system_Mtxlock(__iar_Rmtx *m);
  __intrinsic __nounwind void __iar_system_Mtxunlock(__iar_Rmtx *m);

  __intrinsic __nounwind void __iar_file_Mtxinit(__iar_Rmtx *m);
  __intrinsic __nounwind void __iar_file_Mtxdst(__iar_Rmtx *m);
  __intrinsic __nounwind void __iar_file_Mtxlock(__iar_Rmtx *m);
  __intrinsic __nounwind void __iar_file_Mtxunlock(__iar_Rmtx *m);

  
 
  __intrinsic __nounwind void __iar_clearlocks(void);



  



  


  typedef unsigned _Once_t;

  








                 


                 
  
  
    
  _Pragma("object_attribute = __weak") __intrinsic __nounwind void __iar_Locksyslock_Locale(void);
  _Pragma("object_attribute = __weak") __intrinsic __nounwind void __iar_Locksyslock_Malloc(void);
  _Pragma("object_attribute = __weak") __intrinsic __nounwind void __iar_Locksyslock_Stream(void);
  _Pragma("object_attribute = __weak") __intrinsic __nounwind void __iar_Locksyslock_Debug(void);
  _Pragma("object_attribute = __weak") __intrinsic __nounwind void __iar_Locksyslock_StaticGuard(void);
  _Pragma("object_attribute = __weak") __intrinsic __nounwind void __iar_Locksyslock(unsigned int);
  _Pragma("object_attribute = __weak") __intrinsic __nounwind void __iar_Unlocksyslock_Locale(void);
  _Pragma("object_attribute = __weak") __intrinsic __nounwind void __iar_Unlocksyslock_Malloc(void);
  _Pragma("object_attribute = __weak") __intrinsic __nounwind void __iar_Unlocksyslock_Stream(void);
  _Pragma("object_attribute = __weak") __intrinsic __nounwind void __iar_Unlocksyslock_Debug(void);
  _Pragma("object_attribute = __weak") __intrinsic __nounwind void __iar_Unlocksyslock_StaticGuard(void);
  _Pragma("object_attribute = __weak") __intrinsic __nounwind void __iar_Unlocksyslock(unsigned int);

  _Pragma("object_attribute = __weak") __intrinsic __nounwind void __iar_Initdynamicfilelock(__iar_Rmtx *);
  _Pragma("object_attribute = __weak") __intrinsic __nounwind void __iar_Dstdynamicfilelock(__iar_Rmtx *);
  _Pragma("object_attribute = __weak") __intrinsic __nounwind void __iar_Lockdynamicfilelock(__iar_Rmtx *);
  _Pragma("object_attribute = __weak") __intrinsic __nounwind void __iar_Unlockdynamicfilelock(__iar_Rmtx *);
  
  

                 


                 







 


 
  typedef signed char   int8_t;
  typedef unsigned char uint8_t;

  typedef signed short int   int16_t;
  typedef unsigned short int uint16_t;

  typedef signed int   int32_t;
  typedef unsigned int uint32_t;

  #pragma language=save
  #pragma language=extended
  typedef signed long long int   int64_t;
  typedef unsigned long long int uint64_t;
  #pragma language=restore


 
typedef signed char   int_least8_t;
typedef unsigned char uint_least8_t;

typedef signed short int   int_least16_t;
typedef unsigned short int uint_least16_t;

typedef signed int   int_least32_t;
typedef unsigned int uint_least32_t;

 
  #pragma language=save
  #pragma language=extended
  typedef signed long long int int_least64_t;
  #pragma language=restore
  #pragma language=save
  #pragma language=extended
  typedef unsigned long long int uint_least64_t;
  #pragma language=restore



 
typedef signed int   int_fast8_t;
typedef unsigned int uint_fast8_t;

typedef signed int   int_fast16_t;
typedef unsigned int uint_fast16_t;

typedef signed int   int_fast32_t;
typedef unsigned int uint_fast32_t;

  #pragma language=save
  #pragma language=extended
  typedef signed long long int int_fast64_t;
  #pragma language=restore
  #pragma language=save
  #pragma language=extended
  typedef unsigned long long int uint_fast64_t;
  #pragma language=restore

 
#pragma language=save
#pragma language=extended
typedef signed long long int   intmax_t;
typedef unsigned long long int uintmax_t;
#pragma language=restore


 
typedef signed long int   intptr_t;
typedef unsigned long int uintptr_t;

 
typedef int __data_intptr_t; typedef unsigned int __data_uintptr_t;

 

























 














 






 

 
typedef uint8_t   bool_t;

typedef uint8_t    index_t;

 


 





typedef volatile signed char vint8_t;
typedef volatile unsigned char vuint8_t;
typedef volatile signed short vint16_t;
typedef volatile unsigned short vuint16_t;
typedef volatile signed long vint32_t;
typedef volatile unsigned long vuint32_t;

typedef unsigned char uintn8_t;
typedef unsigned long uintn32_t;


 


 
typedef uint32_t instanceId_t;


















 












































































 





 













 
 





 
 
 

  #pragma system_include

 
 

 

  #pragma system_include






 















 




 
 


  #pragma system_include

 
 

 

  #pragma system_include






 















 






                 
typedef _Sizet size_t;

typedef unsigned int __data_size_t;







                 


                 
  typedef _Ptrdifft ptrdiff_t;

  typedef _Wchart wchar_t;







 







typedef enum  {
  osPriorityIdle          = -3,          
  osPriorityLow           = -2,          
  osPriorityBelowNormal   = -1,          
  osPriorityNormal        =  0,          
  osPriorityAboveNormal   = +1,          
  osPriorityHigh          = +2,          
  osPriorityRealtime      = +3,          
  osPriorityError         =  0x84        
} osPriority;






typedef enum  {
  osOK                    =     0,       
  osEventSignal           =  0x08,       
  osEventMessage          =  0x10,       
  osEventMail             =  0x20,       
  osEventTimeout          =  0x40,       
  osErrorParameter        =  0x80,       
  osErrorResource         =  0x81,       
  osErrorTimeoutResource  =  0xC1,       
  osErrorISR              =  0x82,       
  osErrorISRRecursive     =  0x83,       
  osErrorPriority         =  0x84,       
  osErrorNoMemory         =  0x85,       
  osErrorValue            =  0x86,       
  osErrorOS               =  0xFF,       
  os_status_reserved      =  0x7FFFFFFF  
} osStatus;




typedef enum  {
  osTimerOnce             =     0,       
  osTimerPeriodic         =     1        
} os_timer_type;



typedef void (*os_pthread) (void const *argument);



typedef void (*os_ptimer) (void const *argument);


typedef void (*osIsrFuncPtr_t) (void *);





typedef void *osThreadId;



typedef void *osTimerId;



typedef void *osMutexId;



typedef void *osSemaphoreId;



typedef struct os_pool_cb *osPoolId;



typedef void *osMessageQId;



typedef struct os_mailQ_cb *osMailQId;




typedef struct os_thread_def  {
  os_pthread               pthread;    
  osPriority             tpriority;    
  uint32_t               instances;    
  uint32_t               stacksize;    
  uint8_t                  *tstack;
  void                    *tsignal;
  void                      *tlink;
  char                      *tname;
} osThreadDef_t;

typedef struct osThreadLink_tag{
  uint8_t          link[12];
  osThreadId       osThreadId;
  osThreadDef_t    *osThreadDefHandle;
  uint8_t          *osThreadStackHandle;
  void             *osThreadSignalHandle;
}osThreadLink_t, *osThreadLinkHandle_t;



typedef struct os_timer_def  {
  os_ptimer                 ptimer;    
  void                   *argument;
} osTimerDef_t;



typedef struct os_mutex_def  {
  uint32_t                   dummy;    
} osMutexDef_t;



typedef struct os_semaphore_def  {
  uint32_t                   dummy;    
} osSemaphoreDef_t;



typedef const struct os_pool_def  {
  uint32_t                 pool_sz;    
  uint32_t                 item_sz;    
  void                       *pool;    
} osPoolDef_t;



typedef struct os_messageQ_def  {
  uint32_t                queue_sz;    
  uint32_t                 item_sz;    
  void                       *pool;    
} osMessageQDef_t;



typedef const struct os_mailQ_def  {
  uint32_t                queue_sz;    
  uint32_t                 item_sz;    
  void                       *pool;    
} osMailQDef_t;




typedef struct  {
  osStatus                 status;     
  union  {
    uint32_t                    v;     
    void                       *p;     
    int32_t               signals;     
  } value;                             
  union  {
    osMailQId             mail_id;     
    osMessageQId       message_id;     
  } def;                               
} osEvent;









osStatus osKernelStart (osThreadDef_t *thread_def, void *argument);




int32_t osKernelRunning(void);

























osThreadId osThreadCreate (osThreadDef_t *thread_def, void *argument);




osThreadId osThreadGetId (void);





osStatus osThreadTerminate (osThreadId thread_id);




osStatus osThreadYield (void);






osStatus osThreadSetPriority (osThreadId thread_id, osPriority priority);





osPriority osThreadGetPriority (osThreadId thread_id);








osStatus osDelay (uint32_t millisec);






osEvent osWait (uint32_t millisec);





















osTimerId osTimerCreate (osTimerDef_t *timer_def, os_timer_type type, void *argument);






osStatus osTimerStart (osTimerId timer_id, uint32_t millisec);





osStatus osTimerStop (osTimerId timer_id);









int32_t osSignalSet (osThreadId thread_id, int32_t signal);






int32_t osSignalClear (osThreadId thread_id, int32_t signal);





int32_t osSignalGet (osThreadId thread_id);






osEvent osSignalWait (int32_t signals, uint32_t millisec);


















osMutexId osMutexCreate (osMutexDef_t *mutex_def);






osStatus osMutexWait (osMutexId mutex_id, uint32_t millisec);





osStatus osMutexRelease (osMutexId mutex_id);




















osSemaphoreId osSemaphoreCreate (osSemaphoreDef_t *semaphore_def, int32_t count);






int32_t osSemaphoreWait (osSemaphoreId semaphore_id, uint32_t millisec);





osStatus osSemaphoreRelease (osSemaphoreId semaphore_id);


























osMessageQId osMessageCreate (osMessageQDef_t *queue_def, osThreadId thread_id);







osStatus osMessagePut (osMessageQId queue_id, uint32_t info, uint32_t millisec);






osEvent osMessageGet (osMessageQId queue_id, uint32_t millisec);













osIsrFuncPtr_t osInstallIsr(uint32_t vector, osIsrFuncPtr_t isrPtr, void *param);



void osGenericISR(void);



void osUnhandledISR(void *param);



void osInterruptEnable(void);



void osInterruptDisable(void);
































 






 





 








 

typedef uint32_t panicId_t;

typedef struct
{
    panicId_t id;
    uint32_t location;
    uint32_t extra1;
    uint32_t extra2;
    uint32_t linkRegister;
    uint32_t cpsr_contents;    
    uint8_t stack_dump[4];     
} panicData_t;






 






 
void panic
(
    panicId_t id,
    uint32_t location,
    uint32_t extra1,
    uint32_t extra2
);
































 







 































 







 







 





 
typedef enum
{
  gListOk_c = 0,
  gListFull_c,
  gListEmpty_c,
  gOrphanElement_c
}listStatus_t;

typedef struct list_tag
{
  struct listElement_tag *head;
  struct listElement_tag *tail;
  uint16_t size;
  uint16_t max;
}list_t, *listHandle_t;

typedef struct listElement_tag
{
  struct listElement_tag *next;
  struct listElement_tag *prev;
  struct list_tag *list;
}listElement_t, *listElementHandle_t;





 
void ListInit(listHandle_t list, uint32_t max);
listHandle_t ListGetList(listElementHandle_t element);
listStatus_t ListAddHead(listHandle_t list, listElementHandle_t element);
listStatus_t ListAddTail(listHandle_t list, listElementHandle_t element);
listElementHandle_t ListRemoveHead(listHandle_t list);
listElementHandle_t ListGetHead(listHandle_t list);
listElementHandle_t ListGetNext(listElementHandle_t element);
listElementHandle_t ListGetPrev(listElementHandle_t element);
listStatus_t ListRemoveElement(listElementHandle_t element);
listStatus_t ListAddPrevElement(listElementHandle_t element, listElementHandle_t newElement);
uint32_t ListGetSize(listHandle_t list);
uint32_t ListGetAvailable(listHandle_t list);
listStatus_t ListTest(void);





 




 


 

 
 
 







 
 

 





 
 
typedef enum
{
  MEM_SUCCESS_c = 0,                     
  MEM_INIT_ERROR_c,                      
  MEM_ALLOC_ERROR_c,                     
  MEM_FREE_ERROR_c,                      
  MEM_UNKNOWN_ERROR_c                    
}memStatus_t;





 
 
memStatus_t MEM_Init(void);
 
uint32_t MEM_GetAvailableBlocks(uint32_t size);
 
memStatus_t MEM_BufferFree(void* buffer);
 
void* MEM_BufferAlloc(uint32_t numBytes);
 
uint16_t MEM_BufferGetSize(void* buffer);
 
uint32_t MEM_WriteReadTest(void);





 






 



 
typedef __packed struct listHeader_tag
{
  listElement_t link;
  struct pools_tag *pParentPool;
}listHeader_t;

 
typedef __packed struct pools_tag
{
  list_t anchor; 
  uint16_t nextBlockSize;
  uint16_t blockSize;
}pools_t;

 
typedef __packed struct poolInfo_tag
{
  uint16_t blockSize;
  uint16_t poolSize;
 
}poolInfo_t;





 







 


poolInfo_t poolInfo[] =
{
  { 64 , 8 }, { 128 , 2 }, { 320 , 6 },
  {0, 0}  
};





uint8_t memHeap[((sizeof(listHeader_t)+ 64 ) * 8 + (sizeof(listHeader_t)+ 128 ) * 2 + (sizeof(listHeader_t)+ 320 ) * 6 + 0)];
const uint32_t heapSize = ((sizeof(listHeader_t)+ 64 ) * 8 + (sizeof(listHeader_t)+ 128 ) * 2 + (sizeof(listHeader_t)+ 320 ) * 6 + 0);





pools_t memPools[(0 * 64 + 0 * 8 + 1 + 0 * 128 + 0 * 2 + 1 + 0 * 320 + 0 * 6 + 1 + 0)];




uint16_t gFreeMessagesCount;





 









 
memStatus_t MEM_Init()
{
  poolInfo_t *pPoolInfo = poolInfo; 
  pools_t *pPools = memPools;
  uint8_t *pHeap = memHeap;

  uint8_t poolN;

  gFreeMessagesCount = 0;

  for(;;)
  {
    poolN = pPoolInfo->poolSize;
    ListInit((listHandle_t)&pPools->anchor, poolN);

    while(poolN)
    {
      
      ListAddTail((listHandle_t)&pPools->anchor, (listElementHandle_t)&((listHeader_t *)pHeap)->link);
      ((listHeader_t *)pHeap)->pParentPool = pPools;

      gFreeMessagesCount++;

        
      pHeap += pPoolInfo->blockSize + sizeof(listHeader_t);
      poolN--;
    }

    pPools->blockSize = pPoolInfo->blockSize;
    pPools->nextBlockSize = (pPoolInfo+1)->blockSize;
    if(pPools->nextBlockSize == 0)
    {
      break;
    }

    pPools++;
    pPoolInfo++;
  }
  return MEM_SUCCESS_c;
}











 
uint32_t MEM_GetAvailableBlocks
  (
  uint32_t size
  )
{
  pools_t *pPools = memPools;
  uint32_t pTotalCount = 0;

  for(;;)
  {
    if(size <= pPools->blockSize)
    {
      pTotalCount += ListGetSize((listHandle_t)&pPools->anchor);
    }

    if(pPools->nextBlockSize == 0)
    {
      break;
    }

    pPools++;
  }

  return  pTotalCount;
}










 
void* MEM_BufferAlloc
  (
  uint32_t numBytes 
  )
{

  pools_t *pPools = memPools;
  listHeader_t *pBlock;


  osInterruptDisable();

  while(numBytes)
  {
    if(numBytes <= pPools->blockSize)
    {
      pBlock = (listHeader_t *)ListRemoveHead((listHandle_t)&pPools->anchor);

      if((( void * )( 0x0UL )) != pBlock)
      {
        pBlock++;
        gFreeMessagesCount--;


        osInterruptEnable();
        return pBlock;
      }
      else
      {
        if(numBytes > pPools->nextBlockSize) break;
        
        numBytes = pPools->nextBlockSize;
      }
    }
      
    if(pPools->nextBlockSize)
      pPools++;
    else
      break;
  }
  panic( 0, (uint32_t)MEM_BufferAlloc, 0, 0);
  osInterruptEnable();
  return (( void * )( 0x0UL ));
}













 
memStatus_t MEM_BufferFree
  (
  void* buffer 
  )
{
    pools_t *pParentPool;
    pools_t *pool;
	

  if(buffer == (( void * )( 0x0UL )))
  {
    return MEM_FREE_ERROR_c;
  }

  osInterruptDisable();

  pParentPool = (pools_t *)((listHeader_t *)buffer-1)->pParentPool;

  pool = memPools;
  for(;;)
  {
    if (pParentPool == pool)
      break;
    if(pool->nextBlockSize == 0)
    {
      osInterruptEnable();
      return MEM_FREE_ERROR_c;
    }
    pool++;
  }

  gFreeMessagesCount++;

  ListAddTail((listHandle_t)&pParentPool->anchor, (listElementHandle_t)&((listHeader_t *)buffer-1)->link);


  osInterruptEnable();
  return MEM_SUCCESS_c;
}










 
uint16_t MEM_BufferGetSize
(
void* buffer 
)
{
    if( buffer )
    {
        return ((pools_t *)((listHeader_t *)buffer-1)->pParentPool)->blockSize;
    }

    return 0;
}





 













 









 
uint32_t MEM_WriteReadTest(void)
{
  uint8_t *data, count = 1;
  uintn32_t idx1,idx2,idx3;
  uint32_t freeMsgs;

   
  freeMsgs = MEM_GetAvailableBlocks(0);

  for(idx1=0; poolInfo[idx1].blockSize != 0; idx1++)
  {
    for(idx2=0; idx2 < poolInfo[idx1].poolSize; idx2++)
    {
      data = (uint8_t *)MEM_BufferAlloc(poolInfo[idx1].blockSize);

      if(data == (( void * )( 0x0UL )))
      {
        return MEM_ALLOC_ERROR_c;
      }

      for(idx3=0; idx3 < poolInfo[idx1].blockSize; idx3++)
      {
        if(data > memHeap + heapSize)
        {
          return MEM_UNKNOWN_ERROR_c;
        }
        *data = count & 0xff;
        data++;
      }
      count++;
    }
  }

  count = 1;
  data = memHeap;
   
  for(idx1=0; poolInfo[idx1].blockSize != 0; idx1++)
  {
    for(idx2=0; idx2 < poolInfo[idx1].poolSize; idx2++)
    {
       
      data = data + sizeof(listHeader_t);
      for(idx3=0; idx3<poolInfo[idx1].blockSize; idx3++)
      {
        if(*data == count)
        {
          data++;
        }
        else
        {
          return MEM_UNKNOWN_ERROR_c;
        }
      }
      if(MEM_BufferFree( data - poolInfo[idx1].blockSize) != MEM_SUCCESS_c)
      {
        return MEM_FREE_ERROR_c;
      }
      count++;
    }
  }
  if(MEM_GetAvailableBlocks(0) != freeMsgs)
  {
    return MEM_UNKNOWN_ERROR_c;
  }

  return MEM_SUCCESS_c;
}
